<?xml version="1.0" encoding="utf-8"?>
<!-- Generator: Adobe Illustrator 15.1.0, SVG Export Plug-In . SVG Version: 6.00 Build 0)  -->
<!DOCTYPE svg PUBLIC "-//W3C//DTD SVG 1.1//EN" "http://www.w3.org/Graphics/SVG/1.1/DTD/svg11.dtd">
<svg version="1.1" id="Ebene_1" xmlns="http://www.w3.org/2000/svg" xmlns:xlink="http://www.w3.org/1999/xlink" x="0px" y="0px"
	 width="612px" height="612px" viewBox="0 0 612 612" enable-background="new 0 0 612 612" xml:space="preserve">
<path fill="#19232b" d="M0,0h612v612H0V0z"/>
<path display="none" fill="#FFFFFF" d="M133.875,223.875h344.25v344.25h-344.25V223.875z"/>
<path display="none" fill="#1A568F" d="M153,243h306v306H153V243z"/>
<path display="none" fill="#FFFFFF" d="M172.125,262.125h267.75v76.5h-267.75V262.125z M172.125,357.75h95.625v172.125h-95.625
	V357.75z M286.875,357.75h153v172.125h-153V357.75z"/>
<rect x="71.5" y="135.5" fill="none" width="433" height="450"/>
<rect x="165.125" y="237.875" fill="none" width="296.375" height="239.625"/>
<g enable-background="new    ">
	<path fill="#FFFFFF" d="M443.696,219.019v214.286c0,5.802-2.121,10.824-6.361,15.066c-4.242,4.24-9.265,6.362-15.066,6.362H186.553
		c-5.805,0-10.827-2.122-15.067-6.362c-4.243-4.242-6.362-9.265-6.362-15.066V219.019c0-5.802,2.119-10.824,6.362-15.066
		c4.24-4.24,9.262-6.362,15.067-6.362h21.428v-16.071c0-7.366,2.621-13.67,7.869-18.917c5.245-5.245,11.551-7.868,18.917-7.868
		h10.714c7.366,0,13.67,2.623,18.917,7.868c5.245,5.247,7.869,11.551,7.869,18.917v16.071h64.285v-16.071
		c0-7.366,2.621-13.67,7.869-18.917c5.244-5.245,11.551-7.868,18.917-7.868h10.714c7.366,0,13.67,2.623,18.918,7.868
		c5.244,5.247,7.868,11.551,7.868,18.917v16.071h21.429c5.802,0,10.824,2.122,15.066,6.362
		C441.574,208.195,443.696,213.218,443.696,219.019z M186.553,310.091h48.214v-48.214h-48.214V310.091z M186.553,374.377h48.214
		v-53.571h-48.214V374.377z M186.553,433.305h48.214v-48.215h-48.214V433.305z M250.839,229.734v-48.215
		c0-1.449-0.531-2.704-1.59-3.767c-1.062-1.06-2.318-1.59-3.767-1.59h-10.714c-1.452,0-2.708,0.53-3.767,1.59
		c-1.062,1.063-1.59,2.317-1.59,3.767v48.215c0,1.451,0.528,2.707,1.59,3.767c1.06,1.062,2.315,1.59,3.767,1.59h10.714
		c1.449,0,2.705-0.528,3.767-1.59C250.308,232.441,250.839,231.185,250.839,229.734z M245.482,310.091h53.572v-48.214h-53.572
		V310.091z M245.482,374.377h53.572v-53.571h-53.572V374.377z M245.482,433.305h53.572v-48.215h-53.572V433.305z M309.768,310.091
		h53.571v-48.214h-53.571V310.091z M309.768,374.377h53.571v-53.571h-53.571V374.377z M309.768,433.305h53.571v-48.215h-53.571
		V433.305z M379.41,229.734v-48.215c0-1.449-0.531-2.704-1.59-3.767c-1.063-1.06-2.318-1.59-3.768-1.59h-10.714
		c-1.452,0-2.708,0.53-3.767,1.59c-1.063,1.063-1.591,2.317-1.591,3.767v48.215c0,1.451,0.528,2.707,1.591,3.767
		c1.059,1.062,2.314,1.59,3.767,1.59h10.714c1.449,0,2.705-0.528,3.768-1.59C378.879,232.441,379.41,231.185,379.41,229.734z
		 M374.053,310.091h48.215v-48.214h-48.215V310.091z M374.053,374.377h48.215v-53.571h-48.215V374.377z M374.053,433.305h48.215
		v-48.215h-48.215V433.305z"/>
</g>
</svg>
